<?xml version="1.0" encoding="utf-8"?>
<!-- Generator: Adobe Illustrator 22.0.1, SVG Export Plug-In . SVG Version: 6.00 Build 0)  -->
<svg version="1.1" id="Layer_1" xmlns="http://www.w3.org/2000/svg" xmlns:xlink="http://www.w3.org/1999/xlink" x="0px" y="0px"
	 viewBox="0 0 28 26" style="enable-background:new 0 0 28 26;" xml:space="preserve">
<style type="text/css">
	.st0{fill:#555555;}
</style>
<g>
	<path class="st0" d="M23,0H5C2.2,0,0,2.2,0,5v11.7c0,2.8,2.2,5,5,5h6.2l2.3,4c0.2,0.4,0.8,0.4,1,0l2.3-4H23c2.8,0,5-2.2,5-5V5
		C28,2.2,25.8,0,23,0z M7,14.1c-0.6,0-1.1-0.3-1.6-0.7V14H4V7.3h1.5v2.2C5.9,9,6.4,8.8,7,8.8c1.3,0,2.4,1.2,2.4,2.6
		C9.4,12.9,8.3,14.1,7,14.1z M11.9,14h-1.5V9.3c0-0.7-0.8-0.9-0.8-0.9V7.1c2.3,0.2,2.3,2.1,2.3,2.1V14z M15.4,14.1
		c-1.5,0-2.6-1.2-2.6-2.6c0-1.5,1.2-2.6,2.6-2.6s2.6,1.2,2.6,2.6C18.1,12.9,16.9,14.1,15.4,14.1z M24.2,14c0,0,0,2.1-2.7,2.1v-1.3
		c0,0,1.2,0.1,1.2-0.9v-0.7c-0.4,0.4-0.9,0.6-1.5,0.6c-1.3,0-2.4-1.1-2.4-2.6c0-1.4,1.1-2.6,2.4-2.6c0.6,0,1.1,0.2,1.5,0.6V8.9h1.5
		V14z"/>
	<circle class="st0" cx="6.7" cy="11.4" r="1.3"/>
	<circle class="st0" cx="15.4" cy="11.4" r="1.3"/>
	<path class="st0" d="M21.5,10.1c-0.7,0-1.3,0.6-1.3,1.3c0,0.7,0.6,1.3,1.3,1.3s1.3-0.6,1.3-1.3C22.8,10.6,22.2,10.1,21.5,10.1z"/>
</g>
</svg>
