<?xml version="1.0" encoding="utf-8"?>
<!-- Generator: Adobe Illustrator 22.0.1, SVG Export Plug-In . SVG Version: 6.00 Build 0)  -->
<svg version="1.1" id="Layer_1" xmlns="http://www.w3.org/2000/svg" xmlns:xlink="http://www.w3.org/1999/xlink" x="0px" y="0px"
	 viewBox="0 0 34 42" style="enable-background:new 0 0 34 42;" xml:space="preserve">
<style type="text/css">
	.st0{fill:none;stroke:#000000;stroke-width:2;stroke-linecap:round;stroke-miterlimit:10;}
</style>
<g>
	<line class="st0" x1="15.1" y1="1" x2="15.1" y2="41"/>
	<line class="st0" x1="7.3" y1="41" x2="23" y2="41"/>
	<path class="st0" d="M26.3,17H15.1V7h11.2c0.4,0,0.7,0.1,1,0.3l4.7,3c1.2,0.8,1.2,2.6,0,3.4l-4.7,3C27.1,16.9,26.7,17,26.3,17z"/>
	<path class="st0" d="M15.1,21H5.9c-0.4,0-0.8-0.1-1.1-0.3l-2.9-2c-1.2-0.8-1.2-2.5,0-3.3l2.9-2C5.1,13.1,5.5,13,5.9,13h9.2V21z"/>
</g>
</svg>
