<?xml version="1.0" encoding="utf-8"?>
<!-- Generator: Adobe Illustrator 22.0.1, SVG Export Plug-In . SVG Version: 6.00 Build 0)  -->
<svg version="1.1" id="Layer_1" xmlns="http://www.w3.org/2000/svg" xmlns:xlink="http://www.w3.org/1999/xlink" x="0px" y="0px"
	 viewBox="0 0 42 42" style="enable-background:new 0 0 42 42;" xml:space="preserve">
<style type="text/css">
	.st0{fill:none;stroke:#000000;stroke-width:2;stroke-linecap:round;stroke-miterlimit:10;}
</style>
<g>
	<path class="st0" d="M9,22.7V5c0-2.2,1.8-4,4-4h16c2.2,0,4,1.8,4,4v28c0,2.2-1.8,4-4,4h-4"/>
	<path class="st0" d="M39,15h-6v12h6c1.1,0,2-0.9,2-2v-8C41,15.9,40.1,15,39,15z"/>
	<path class="st0" d="M9,15H3c-1.1,0-2,0.9-2,2v8c0,1.1,0.9,2,2,2h4c1.1,0,2-0.9,2-2V15z"/>
	<circle class="st0" cx="21" cy="37" r="4"/>
	<circle class="st0" cx="17" cy="15" r="1"/>
	<circle class="st0" cx="25" cy="15" r="1"/>
	<path class="st0" d="M25,21c0,2.2-1.8,4-4,4s-4-1.8-4-4"/>
</g>
</svg>
