<?xml version="1.0" encoding="utf-8"?>
<!-- Generator: Adobe Illustrator 22.0.1, SVG Export Plug-In . SVG Version: 6.00 Build 0)  -->
<svg version="1.1" id="Layer_1" xmlns="http://www.w3.org/2000/svg" xmlns:xlink="http://www.w3.org/1999/xlink" x="0px" y="0px"
	 viewBox="0 0 28 28" style="enable-background:new 0 0 28 28;" xml:space="preserve">
<style type="text/css">
	.st0{fill:#aaaaaa;}
</style>
<path class="st0" d="M25.7,0H2.3C1,0,0,1,0,2.3v23.4C0,27,1,28,2.3,28h12.4c0-2.3,0-7,0-11.1h-3v-4.1h3c0-0.7,0-1.3,0-1.8
	c0-4.4,2.4-5.9,4.1-6.5c1.7-0.5,4.9-0.4,4.9-0.4v4.2c0,0-2.1-0.3-3.1,0.2c-1,0.5-1.3,1.4-1.3,3v1.3h4.5v4.1h-4.5V28h6.6
	c1.3,0,2.3-1,2.3-2.3V2.3C28,1,27,0,25.7,0z"/>
</svg>
