<?xml version="1.0" encoding="utf-8"?>
<!-- Generator: Adobe Illustrator 22.0.1, SVG Export Plug-In . SVG Version: 6.00 Build 0)  -->
<svg version="1.1" id="Layer_1" xmlns="http://www.w3.org/2000/svg" xmlns:xlink="http://www.w3.org/1999/xlink" x="0px" y="0px"
	 viewBox="0 0 28 28" style="enable-background:new 0 0 28 28;" xml:space="preserve">
<style type="text/css">
	.st0{fill:#aaaaaa;}
</style>
<g>
	<path class="st0" d="M19.8,28H8.2C3.7,28,0,24.3,0,19.8V8.2C0,3.7,3.7,0,8.2,0h11.6C24.3,0,28,3.7,28,8.2v11.6
		C28,24.3,24.3,28,19.8,28z M8.2,2.4C5,2.4,2.4,5,2.4,8.2v11.6c0,3.2,2.6,5.8,5.8,5.8h11.6c3.2,0,5.8-2.6,5.8-5.8V8.2
		c0-3.2-2.6-5.8-5.8-5.8H8.2z"/>
	<path class="st0" d="M14,21.3c-4,0-7.3-3.3-7.3-7.3c0-4,3.3-7.3,7.3-7.3s7.3,3.3,7.3,7.3C21.3,18,18,21.3,14,21.3z M14,9.2
		c-2.7,0-4.8,2.2-4.8,4.8s2.2,4.8,4.8,4.8s4.8-2.2,4.8-4.8S16.7,9.2,14,9.2z"/>
	<circle class="st0" cx="21.4" cy="6.6" r="1.7"/>
</g>
</svg>
