<?xml version="1.0" encoding="utf-8"?>
<!-- Generator: Adobe Illustrator 22.0.1, SVG Export Plug-In . SVG Version: 6.00 Build 0)  -->
<svg version="1.1" id="Layer_1" xmlns="http://www.w3.org/2000/svg" xmlns:xlink="http://www.w3.org/1999/xlink" x="0px" y="0px"
	 viewBox="0 0 40 42" style="enable-background:new 0 0 40 42;" xml:space="preserve">
<style type="text/css">
	.st0{fill:none;stroke:#000000;stroke-width:2;stroke-linecap:round;stroke-linejoin:round;stroke-miterlimit:10;}
</style>
<g>
	<g>
		<path class="st0" d="M20,7.2c8.4,0,15.2,6.7,15.2,15c0,8.3-6.8,15-15.2,15c-8.4,0-15.3-6.7-15.3-15c0-6.5,4.2-12.1,10.1-14.2
			L15.1,8l1.1,4L21,4.5L13.1,1l1,3.5l-1,0.3C6,7.5,1,14.3,1,22.3C1,32.6,9.5,41,20,41c10.5,0,19-8.4,19-18.7
			c0-10.3-8.5-18.7-19-18.7"/>
	</g>
	<line class="st0" x1="20" y1="37" x2="20" y2="32.3"/>
	<line class="st0" x1="4.8" y1="22.1" x2="9.6" y2="22.1"/>
	<line class="st0" x1="30.4" y1="22.1" x2="35.2" y2="22.1"/>
	<line class="st0" x1="9.8" y1="12" x2="12.6" y2="14.8"/>
	<line class="st0" x1="27.4" y1="29.3" x2="30.8" y2="32.7"/>
	<line class="st0" x1="9.2" y1="32.7" x2="12.6" y2="29.3"/>
	<line class="st0" x1="27.4" y1="14.8" x2="30.2" y2="12"/>
	<polyline class="st0" points="20,14.2 20,22.1 23.6,25.6 	"/>
</g>
</svg>
